module adventofcode

go 1.21

require gitlab.com/Alfred456654/aoc-utils v0.4.5

require (
	github.com/stretchr/testify v1.8.4
	golang.org/x/exp v0.0.0-20231127185646-65229373498e
)

require (
	github.com/davecgh/go-spew v1.1.1 // indirect
	github.com/pmezard/go-difflib v1.0.0 // indirect
	gopkg.in/yaml.v3 v3.0.1 // indirect
)
